^C:\USERS\MARK\DESKTOP\GAMEPHYSICS\GAMEPHYSICS_DLL\GAMEPHYSICS_DLL\PCH.CPP
C:\USERS\MARK\DESKTOP\GAMEPHYSICS\GAMEPHYSICS_DLL\GAMEPHYSICS_DLL\X64\DEBUG\GAMEPHYSICSDLL.PCH
C:\USERS\MARK\DESKTOP\GAMEPHYSICS\GAMEPHYSICS_DLL\GAMEPHYSICS_DLL\X64\DEBUG\VC142.PDB
C:\USERS\MARK\DESKTOP\GAMEPHYSICS\GAMEPHYSICS_DLL\GAMEPHYSICS_DLL\X64\DEBUG\VC142.IDB
C:\USERS\MARK\DESKTOP\GAMEPHYSICS\GAMEPHYSICS_DLL\GAMEPHYSICS_DLL\X64\DEBUG\PCH.OBJ
^C:\USERS\MARK\DESKTOP\GAMEPHYSICS\GAMEPHYSICS_DLL\GAMEPHYSICS_DLL\AXISALIGNHULL3D.CPP|C:\USERS\MARK\DESKTOP\GAMEPHYSICS\GAMEPHYSICS_DLL\GAMEPHYSICS_DLL\COLLISIONHULL3D.CPP|C:\USERS\MARK\DESKTOP\GAMEPHYSICS\GAMEPHYSICS_DLL\GAMEPHYSICS_DLL\DLLMAIN.CPP|C:\USERS\MARK\DESKTOP\GAMEPHYSICS\GAMEPHYSICS_DLL\GAMEPHYSICS_DLL\FOO.CPP|C:\USERS\MARK\DESKTOP\GAMEPHYSICS\GAMEPHYSICS_DLL\GAMEPHYSICS_DLL\GAMEPHYSICS_DLL.CPP|C:\USERS\MARK\DESKTOP\GAMEPHYSICS\GAMEPHYSICS_DLL\GAMEPHYSICS_DLL\MYUNITYPLUGIN.CPP|C:\USERS\MARK\DESKTOP\GAMEPHYSICS\GAMEPHYSICS_DLL\GAMEPHYSICS_DLL\OBJECTBOXHULL3D.CPP|C:\USERS\MARK\DESKTOP\GAMEPHYSICS\GAMEPHYSICS_DLL\GAMEPHYSICS_DLL\PHYSICS.CPP|C:\USERS\MARK\DESKTOP\GAMEPHYSICS\GAMEPHYSICS_DLL\GAMEPHYSICS_DLL\SPHEREHULL3D.CPP|C:\USERS\MARK\DESKTOP\GAMEPHYSICS\GAMEPHYSICS_DLL\GAMEPHYSICS_DLL\VECTOR3.CPP
C:\USERS\MARK\DESKTOP\GAMEPHYSICS\GAMEPHYSICS_DLL\GAMEPHYSICS_DLL\X64\DEBUG\VC142.PDB
C:\USERS\MARK\DESKTOP\GAMEPHYSICS\GAMEPHYSICS_DLL\GAMEPHYSICS_DLL\X64\DEBUG\VC142.IDB
C:\USERS\MARK\DESKTOP\GAMEPHYSICS\GAMEPHYSICS_DLL\GAMEPHYSICS_DLL\X64\DEBUG\VECTOR3.OBJ
C:\USERS\MARK\DESKTOP\GAMEPHYSICS\GAMEPHYSICS_DLL\GAMEPHYSICS_DLL\X64\DEBUG\SPHEREHULL3D.OBJ
C:\USERS\MARK\DESKTOP\GAMEPHYSICS\GAMEPHYSICS_DLL\GAMEPHYSICS_DLL\X64\DEBUG\PHYSICS.OBJ
C:\USERS\MARK\DESKTOP\GAMEPHYSICS\GAMEPHYSICS_DLL\GAMEPHYSICS_DLL\X64\DEBUG\OBJECTBOXHULL3D.OBJ
C:\USERS\MARK\DESKTOP\GAMEPHYSICS\GAMEPHYSICS_DLL\GAMEPHYSICS_DLL\X64\DEBUG\MYUNITYPLUGIN.OBJ
C:\USERS\MARK\DESKTOP\GAMEPHYSICS\GAMEPHYSICS_DLL\GAMEPHYSICS_DLL\X64\DEBUG\GAMEPHYSICS_DLL.OBJ
C:\USERS\MARK\DESKTOP\GAMEPHYSICS\GAMEPHYSICS_DLL\GAMEPHYSICS_DLL\X64\DEBUG\FOO.OBJ
C:\USERS\MARK\DESKTOP\GAMEPHYSICS\GAMEPHYSICS_DLL\GAMEPHYSICS_DLL\X64\DEBUG\DLLMAIN.OBJ
C:\USERS\MARK\DESKTOP\GAMEPHYSICS\GAMEPHYSICS_DLL\GAMEPHYSICS_DLL\X64\DEBUG\COLLISIONHULL3D.OBJ
C:\USERS\MARK\DESKTOP\GAMEPHYSICS\GAMEPHYSICS_DLL\GAMEPHYSICS_DLL\X64\DEBUG\AXISALIGNHULL3D.OBJ
^C:\USERS\MARK\DESKTOP\GAMEPHYSICS\GAMEPHYSICS_DLL\GAMEPHYSICS_DLL\DLLMAIN.CPP
C:\USERS\MARK\DESKTOP\GAMEPHYSICS\GAMEPHYSICS_DLL\GAMEPHYSICS_DLL\X64\DEBUG\VC142.PDB
^C:\USERS\MARK\DESKTOP\GAMEPHYSICS\GAMEPHYSICS_DLL\GAMEPHYSICS_DLL\FOO.CPP
C:\USERS\MARK\DESKTOP\GAMEPHYSICS\GAMEPHYSICS_DLL\GAMEPHYSICS_DLL\X64\DEBUG\VC142.PDB
^C:\USERS\MARK\DESKTOP\GAMEPHYSICS\GAMEPHYSICS_DLL\GAMEPHYSICS_DLL\GAMEPHYSICS_DLL.CPP
C:\USERS\MARK\DESKTOP\GAMEPHYSICS\GAMEPHYSICS_DLL\GAMEPHYSICS_DLL\X64\DEBUG\VC142.PDB
^C:\USERS\MARK\DESKTOP\GAMEPHYSICS\GAMEPHYSICS_DLL\GAMEPHYSICS_DLL\AXISALIGNHULL3D.CPP|C:\USERS\MARK\DESKTOP\GAMEPHYSICS\GAMEPHYSICS_DLL\GAMEPHYSICS_DLL\COLLISIONHULL3D.CPP|C:\USERS\MARK\DESKTOP\GAMEPHYSICS\GAMEPHYSICS_DLL\GAMEPHYSICS_DLL\MYUNITYPLUGIN.CPP|C:\USERS\MARK\DESKTOP\GAMEPHYSICS\GAMEPHYSICS_DLL\GAMEPHYSICS_DLL\OBJECTBOXHULL3D.CPP|C:\USERS\MARK\DESKTOP\GAMEPHYSICS\GAMEPHYSICS_DLL\GAMEPHYSICS_DLL\PHYSICS.CPP|C:\USERS\MARK\DESKTOP\GAMEPHYSICS\GAMEPHYSICS_DLL\GAMEPHYSICS_DLL\SPHEREHULL3D.CPP
C:\USERS\MARK\DESKTOP\GAMEPHYSICS\GAMEPHYSICS_DLL\GAMEPHYSICS_DLL\X64\DEBUG\VC142.PDB
C:\USERS\MARK\DESKTOP\GAMEPHYSICS\GAMEPHYSICS_DLL\GAMEPHYSICS_DLL\X64\DEBUG\VC142.IDB
C:\USERS\MARK\DESKTOP\GAMEPHYSICS\GAMEPHYSICS_DLL\GAMEPHYSICS_DLL\X64\DEBUG\SPHEREHULL3D.OBJ
C:\USERS\MARK\DESKTOP\GAMEPHYSICS\GAMEPHYSICS_DLL\GAMEPHYSICS_DLL\X64\DEBUG\PHYSICS.OBJ
C:\USERS\MARK\DESKTOP\GAMEPHYSICS\GAMEPHYSICS_DLL\GAMEPHYSICS_DLL\X64\DEBUG\OBJECTBOXHULL3D.OBJ
C:\USERS\MARK\DESKTOP\GAMEPHYSICS\GAMEPHYSICS_DLL\GAMEPHYSICS_DLL\X64\DEBUG\MYUNITYPLUGIN.OBJ
C:\USERS\MARK\DESKTOP\GAMEPHYSICS\GAMEPHYSICS_DLL\GAMEPHYSICS_DLL\X64\DEBUG\COLLISIONHULL3D.OBJ
C:\USERS\MARK\DESKTOP\GAMEPHYSICS\GAMEPHYSICS_DLL\GAMEPHYSICS_DLL\X64\DEBUG\AXISALIGNHULL3D.OBJ
^C:\USERS\MARK\DESKTOP\GAMEPHYSICS\GAMEPHYSICS_DLL\GAMEPHYSICS_DLL\OBJECTBOXHULL3D.CPP|C:\USERS\MARK\DESKTOP\GAMEPHYSICS\GAMEPHYSICS_DLL\GAMEPHYSICS_DLL\PHYSICS.CPP
C:\USERS\MARK\DESKTOP\GAMEPHYSICS\GAMEPHYSICS_DLL\GAMEPHYSICS_DLL\X64\DEBUG\VC142.PDB
C:\USERS\MARK\DESKTOP\GAMEPHYSICS\GAMEPHYSICS_DLL\GAMEPHYSICS_DLL\X64\DEBUG\VC142.IDB
C:\USERS\MARK\DESKTOP\GAMEPHYSICS\GAMEPHYSICS_DLL\GAMEPHYSICS_DLL\X64\DEBUG\PHYSICS.OBJ
C:\USERS\MARK\DESKTOP\GAMEPHYSICS\GAMEPHYSICS_DLL\GAMEPHYSICS_DLL\X64\DEBUG\OBJECTBOXHULL3D.OBJ
^C:\USERS\MARK\DESKTOP\GAMEPHYSICS\GAMEPHYSICS_DLL\GAMEPHYSICS_DLL\AXISALIGNHULL3D.CPP|C:\USERS\MARK\DESKTOP\GAMEPHYSICS\GAMEPHYSICS_DLL\GAMEPHYSICS_DLL\MYUNITYPLUGIN.CPP|C:\USERS\MARK\DESKTOP\GAMEPHYSICS\GAMEPHYSICS_DLL\GAMEPHYSICS_DLL\OBJECTBOXHULL3D.CPP|C:\USERS\MARK\DESKTOP\GAMEPHYSICS\GAMEPHYSICS_DLL\GAMEPHYSICS_DLL\PHYSICS.CPP|C:\USERS\MARK\DESKTOP\GAMEPHYSICS\GAMEPHYSICS_DLL\GAMEPHYSICS_DLL\SPHEREHULL3D.CPP|C:\USERS\MARK\DESKTOP\GAMEPHYSICS\GAMEPHYSICS_DLL\GAMEPHYSICS_DLL\VECTOR3.CPP
C:\USERS\MARK\DESKTOP\GAMEPHYSICS\GAMEPHYSICS_DLL\GAMEPHYSICS_DLL\X64\DEBUG\VC142.PDB
C:\USERS\MARK\DESKTOP\GAMEPHYSICS\GAMEPHYSICS_DLL\GAMEPHYSICS_DLL\X64\DEBUG\VC142.IDB
C:\USERS\MARK\DESKTOP\GAMEPHYSICS\GAMEPHYSICS_DLL\GAMEPHYSICS_DLL\X64\DEBUG\VECTOR3.OBJ
C:\USERS\MARK\DESKTOP\GAMEPHYSICS\GAMEPHYSICS_DLL\GAMEPHYSICS_DLL\X64\DEBUG\SPHEREHULL3D.OBJ
C:\USERS\MARK\DESKTOP\GAMEPHYSICS\GAMEPHYSICS_DLL\GAMEPHYSICS_DLL\X64\DEBUG\PHYSICS.OBJ
C:\USERS\MARK\DESKTOP\GAMEPHYSICS\GAMEPHYSICS_DLL\GAMEPHYSICS_DLL\X64\DEBUG\OBJECTBOXHULL3D.OBJ
C:\USERS\MARK\DESKTOP\GAMEPHYSICS\GAMEPHYSICS_DLL\GAMEPHYSICS_DLL\X64\DEBUG\MYUNITYPLUGIN.OBJ
C:\USERS\MARK\DESKTOP\GAMEPHYSICS\GAMEPHYSICS_DLL\GAMEPHYSICS_DLL\X64\DEBUG\AXISALIGNHULL3D.OBJ
^C:\USERS\MARK\DESKTOP\GAMEPHYSICS\GAMEPHYSICS_DLL\GAMEPHYSICS_DLL\AXISALIGNHULL3D.CPP|C:\USERS\MARK\DESKTOP\GAMEPHYSICS\GAMEPHYSICS_DLL\GAMEPHYSICS_DLL\MYUNITYPLUGIN.CPP
C:\USERS\MARK\DESKTOP\GAMEPHYSICS\GAMEPHYSICS_DLL\GAMEPHYSICS_DLL\X64\DEBUG\VC142.PDB
C:\USERS\MARK\DESKTOP\GAMEPHYSICS\GAMEPHYSICS_DLL\GAMEPHYSICS_DLL\X64\DEBUG\VC142.IDB
C:\USERS\MARK\DESKTOP\GAMEPHYSICS\GAMEPHYSICS_DLL\GAMEPHYSICS_DLL\X64\DEBUG\MYUNITYPLUGIN.OBJ
C:\USERS\MARK\DESKTOP\GAMEPHYSICS\GAMEPHYSICS_DLL\GAMEPHYSICS_DLL\X64\DEBUG\AXISALIGNHULL3D.OBJ
^C:\USERS\MARK\DESKTOP\GAMEPHYSICS\GAMEPHYSICS_DLL\GAMEPHYSICS_DLL\AXISALIGNHULL3D.CPP|C:\USERS\MARK\DESKTOP\GAMEPHYSICS\GAMEPHYSICS_DLL\GAMEPHYSICS_DLL\VECTOR3.CPP
C:\USERS\MARK\DESKTOP\GAMEPHYSICS\GAMEPHYSICS_DLL\GAMEPHYSICS_DLL\X64\DEBUG\VC142.PDB
C:\USERS\MARK\DESKTOP\GAMEPHYSICS\GAMEPHYSICS_DLL\GAMEPHYSICS_DLL\X64\DEBUG\VC142.IDB
C:\USERS\MARK\DESKTOP\GAMEPHYSICS\GAMEPHYSICS_DLL\GAMEPHYSICS_DLL\X64\DEBUG\VECTOR3.OBJ
C:\USERS\MARK\DESKTOP\GAMEPHYSICS\GAMEPHYSICS_DLL\GAMEPHYSICS_DLL\X64\DEBUG\AXISALIGNHULL3D.OBJ
^C:\USERS\MARK\DESKTOP\GAMEPHYSICS\GAMEPHYSICS_DLL\GAMEPHYSICS_DLL\AXISALIGNHULL3D.CPP|C:\USERS\MARK\DESKTOP\GAMEPHYSICS\GAMEPHYSICS_DLL\GAMEPHYSICS_DLL\COLLISIONHULL3D.CPP|C:\USERS\MARK\DESKTOP\GAMEPHYSICS\GAMEPHYSICS_DLL\GAMEPHYSICS_DLL\MYUNITYPLUGIN.CPP|C:\USERS\MARK\DESKTOP\GAMEPHYSICS\GAMEPHYSICS_DLL\GAMEPHYSICS_DLL\OBJECTBOXHULL3D.CPP|C:\USERS\MARK\DESKTOP\GAMEPHYSICS\GAMEPHYSICS_DLL\GAMEPHYSICS_DLL\PHYSICS.CPP|C:\USERS\MARK\DESKTOP\GAMEPHYSICS\GAMEPHYSICS_DLL\GAMEPHYSICS_DLL\SPHEREHULL3D.CPP|C:\USERS\MARK\DESKTOP\GAMEPHYSICS\GAMEPHYSICS_DLL\GAMEPHYSICS_DLL\VECTOR3.CPP
C:\USERS\MARK\DESKTOP\GAMEPHYSICS\GAMEPHYSICS_DLL\GAMEPHYSICS_DLL\X64\DEBUG\VC142.PDB
C:\USERS\MARK\DESKTOP\GAMEPHYSICS\GAMEPHYSICS_DLL\GAMEPHYSICS_DLL\X64\DEBUG\VC142.IDB
C:\USERS\MARK\DESKTOP\GAMEPHYSICS\GAMEPHYSICS_DLL\GAMEPHYSICS_DLL\X64\DEBUG\VECTOR3.OBJ
C:\USERS\MARK\DESKTOP\GAMEPHYSICS\GAMEPHYSICS_DLL\GAMEPHYSICS_DLL\X64\DEBUG\PHYSICS.OBJ
C:\USERS\MARK\DESKTOP\GAMEPHYSICS\GAMEPHYSICS_DLL\GAMEPHYSICS_DLL\X64\DEBUG\OBJECTBOXHULL3D.OBJ
C:\USERS\MARK\DESKTOP\GAMEPHYSICS\GAMEPHYSICS_DLL\GAMEPHYSICS_DLL\X64\DEBUG\MYUNITYPLUGIN.OBJ
C:\USERS\MARK\DESKTOP\GAMEPHYSICS\GAMEPHYSICS_DLL\GAMEPHYSICS_DLL\X64\DEBUG\COLLISIONHULL3D.OBJ
^C:\USERS\MARK\DESKTOP\GAMEPHYSICS\GAMEPHYSICS_DLL\GAMEPHYSICS_DLL\COLLISIONHULL3D.CPP
C:\USERS\MARK\DESKTOP\GAMEPHYSICS\GAMEPHYSICS_DLL\GAMEPHYSICS_DLL\X64\DEBUG\COLLISIONHULL3D.OBJ
^C:\USERS\MARK\DESKTOP\GAMEPHYSICS\GAMEPHYSICS_DLL\GAMEPHYSICS_DLL\AXISALIGNHULL3D.CPP|C:\USERS\MARK\DESKTOP\GAMEPHYSICS\GAMEPHYSICS_DLL\GAMEPHYSICS_DLL\SPHEREHULL3D.CPP|C:\USERS\MARK\DESKTOP\GAMEPHYSICS\GAMEPHYSICS_DLL\GAMEPHYSICS_DLL\VECTOR3.CPP
C:\USERS\MARK\DESKTOP\GAMEPHYSICS\GAMEPHYSICS_DLL\GAMEPHYSICS_DLL\X64\DEBUG\VC142.PDB
C:\USERS\MARK\DESKTOP\GAMEPHYSICS\GAMEPHYSICS_DLL\GAMEPHYSICS_DLL\X64\DEBUG\VC142.IDB
C:\USERS\MARK\DESKTOP\GAMEPHYSICS\GAMEPHYSICS_DLL\GAMEPHYSICS_DLL\X64\DEBUG\VECTOR3.OBJ
C:\USERS\MARK\DESKTOP\GAMEPHYSICS\GAMEPHYSICS_DLL\GAMEPHYSICS_DLL\X64\DEBUG\SPHEREHULL3D.OBJ
C:\USERS\MARK\DESKTOP\GAMEPHYSICS\GAMEPHYSICS_DLL\GAMEPHYSICS_DLL\X64\DEBUG\AXISALIGNHULL3D.OBJ
^C:\USERS\MARK\DESKTOP\GAMEPHYSICS\GAMEPHYSICS_DLL\GAMEPHYSICS_DLL\VECTOR3.CPP
C:\USERS\MARK\DESKTOP\GAMEPHYSICS\GAMEPHYSICS_DLL\GAMEPHYSICS_DLL\X64\DEBUG\VC142.PDB
^C:\USERS\MARK\DESKTOP\GAMEPHYSICS\GAMEPHYSICS_DLL\GAMEPHYSICS_DLL\AXISALIGNHULL3D.CPP|C:\USERS\MARK\DESKTOP\GAMEPHYSICS\GAMEPHYSICS_DLL\GAMEPHYSICS_DLL\OBJECTBOXHULL3D.CPP
C:\USERS\MARK\DESKTOP\GAMEPHYSICS\GAMEPHYSICS_DLL\GAMEPHYSICS_DLL\X64\DEBUG\VC142.PDB
C:\USERS\MARK\DESKTOP\GAMEPHYSICS\GAMEPHYSICS_DLL\GAMEPHYSICS_DLL\X64\DEBUG\VC142.IDB
C:\USERS\MARK\DESKTOP\GAMEPHYSICS\GAMEPHYSICS_DLL\GAMEPHYSICS_DLL\X64\DEBUG\OBJECTBOXHULL3D.OBJ
C:\USERS\MARK\DESKTOP\GAMEPHYSICS\GAMEPHYSICS_DLL\GAMEPHYSICS_DLL\X64\DEBUG\AXISALIGNHULL3D.OBJ
^C:\USERS\MARK\DESKTOP\GAMEPHYSICS\GAMEPHYSICS_DLL\GAMEPHYSICS_DLL\AXISALIGNHULL3D.CPP|C:\USERS\MARK\DESKTOP\GAMEPHYSICS\GAMEPHYSICS_DLL\GAMEPHYSICS_DLL\MYUNITYPLUGIN.CPP|C:\USERS\MARK\DESKTOP\GAMEPHYSICS\GAMEPHYSICS_DLL\GAMEPHYSICS_DLL\OBJECTBOXHULL3D.CPP|C:\USERS\MARK\DESKTOP\GAMEPHYSICS\GAMEPHYSICS_DLL\GAMEPHYSICS_DLL\PHYSICS.CPP|C:\USERS\MARK\DESKTOP\GAMEPHYSICS\GAMEPHYSICS_DLL\GAMEPHYSICS_DLL\SPHEREHULL3D.CPP
C:\USERS\MARK\DESKTOP\GAMEPHYSICS\GAMEPHYSICS_DLL\GAMEPHYSICS_DLL\X64\DEBUG\VC142.PDB
C:\USERS\MARK\DESKTOP\GAMEPHYSICS\GAMEPHYSICS_DLL\GAMEPHYSICS_DLL\X64\DEBUG\VC142.IDB
C:\USERS\MARK\DESKTOP\GAMEPHYSICS\GAMEPHYSICS_DLL\GAMEPHYSICS_DLL\X64\DEBUG\SPHEREHULL3D.OBJ
C:\USERS\MARK\DESKTOP\GAMEPHYSICS\GAMEPHYSICS_DLL\GAMEPHYSICS_DLL\X64\DEBUG\PHYSICS.OBJ
C:\USERS\MARK\DESKTOP\GAMEPHYSICS\GAMEPHYSICS_DLL\GAMEPHYSICS_DLL\X64\DEBUG\OBJECTBOXHULL3D.OBJ
C:\USERS\MARK\DESKTOP\GAMEPHYSICS\GAMEPHYSICS_DLL\GAMEPHYSICS_DLL\X64\DEBUG\MYUNITYPLUGIN.OBJ
C:\USERS\MARK\DESKTOP\GAMEPHYSICS\GAMEPHYSICS_DLL\GAMEPHYSICS_DLL\X64\DEBUG\AXISALIGNHULL3D.OBJ
^C:\USERS\MARK\DESKTOP\GAMEPHYSICS\GAMEPHYSICS_DLL\GAMEPHYSICS_DLL\AXISALIGNHULL3D.CPP
C:\USERS\MARK\DESKTOP\GAMEPHYSICS\GAMEPHYSICS_DLL\GAMEPHYSICS_DLL\X64\DEBUG\VC142.PDB
^C:\USERS\MARK\DESKTOP\GAMEPHYSICS\GAMEPHYSICS_DLL\GAMEPHYSICS_DLL\MYUNITYPLUGIN.CPP
C:\USERS\MARK\DESKTOP\GAMEPHYSICS\GAMEPHYSICS_DLL\GAMEPHYSICS_DLL\X64\DEBUG\VC142.PDB
^C:\USERS\MARK\DESKTOP\GAMEPHYSICS\GAMEPHYSICS_DLL\GAMEPHYSICS_DLL\OBJECTBOXHULL3D.CPP
C:\USERS\MARK\DESKTOP\GAMEPHYSICS\GAMEPHYSICS_DLL\GAMEPHYSICS_DLL\X64\DEBUG\VC142.PDB
^C:\USERS\MARK\DESKTOP\GAMEPHYSICS\GAMEPHYSICS_DLL\GAMEPHYSICS_DLL\PHYSICS.CPP
C:\USERS\MARK\DESKTOP\GAMEPHYSICS\GAMEPHYSICS_DLL\GAMEPHYSICS_DLL\X64\DEBUG\VC142.PDB
^C:\USERS\MARK\DESKTOP\GAMEPHYSICS\GAMEPHYSICS_DLL\GAMEPHYSICS_DLL\SPHEREHULL3D.CPP
C:\USERS\MARK\DESKTOP\GAMEPHYSICS\GAMEPHYSICS_DLL\GAMEPHYSICS_DLL\X64\DEBUG\VC142.PDB
C:\USERS\MARK\DESKTOP\GAMEPHYSICS\GAMEPHYSICS_DLL\GAMEPHYSICS_DLL\X64\DEBUG\VC142.IDB
C:\USERS\MARK\DESKTOP\GAMEPHYSICS\GAMEPHYSICS_DLL\GAMEPHYSICS_DLL\X64\DEBUG\SPHEREHULL3D.OBJ
