#Command: "C:\Program Files (x86)\Microsoft Visual Studio\2019\Professional\VC\Tools\MSVC\14.22.27905\bin\HostX86\x64\link.exe" /ERRORREPORT:PROMPT @C:\Users\Mark\AppData\Local\Temp\tmpf8afafb08d6d4844ae1761cf6c6453aa.rsp /nologo /incremental /fullbuild
^C:\USERS\MARK\DESKTOP\GAMEPHYSICS\GAMEPHYSICS_DLL\GAMEPHYSICS_DLL\X64\DEBUG\AXISALIGNHULL3D.OBJ|C:\USERS\MARK\DESKTOP\GAMEPHYSICS\GAMEPHYSICS_DLL\GAMEPHYSICS_DLL\X64\DEBUG\COLLISIONHULL3D.OBJ|C:\USERS\MARK\DESKTOP\GAMEPHYSICS\GAMEPHYSICS_DLL\GAMEPHYSICS_DLL\X64\DEBUG\DLLMAIN.OBJ|C:\USERS\MARK\DESKTOP\GAMEPHYSICS\GAMEPHYSICS_DLL\GAMEPHYSICS_DLL\X64\DEBUG\FOO.OBJ|C:\USERS\MARK\DESKTOP\GAMEPHYSICS\GAMEPHYSICS_DLL\GAMEPHYSICS_DLL\X64\DEBUG\GAMEPHYSICS_DLL.OBJ|C:\USERS\MARK\DESKTOP\GAMEPHYSICS\GAMEPHYSICS_DLL\GAMEPHYSICS_DLL\X64\DEBUG\MYUNITYPLUGIN.OBJ|C:\USERS\MARK\DESKTOP\GAMEPHYSICS\GAMEPHYSICS_DLL\GAMEPHYSICS_DLL\X64\DEBUG\OBJECTBOXHULL3D.OBJ|C:\USERS\MARK\DESKTOP\GAMEPHYSICS\GAMEPHYSICS_DLL\GAMEPHYSICS_DLL\X64\DEBUG\PCH.OBJ|C:\USERS\MARK\DESKTOP\GAMEPHYSICS\GAMEPHYSICS_DLL\GAMEPHYSICS_DLL\X64\DEBUG\PHYSICS.OBJ|C:\USERS\MARK\DESKTOP\GAMEPHYSICS\GAMEPHYSICS_DLL\GAMEPHYSICS_DLL\X64\DEBUG\SPHEREHULL3D.OBJ|C:\USERS\MARK\DESKTOP\GAMEPHYSICS\GAMEPHYSICS_DLL\GAMEPHYSICS_DLL\X64\DEBUG\VECTOR3.OBJ
C:\USERS\MARK\APPDATA\LOCAL\TEMP\LNK{25C80C86-EB28-4E5A-A8D5-0E2AAA4B4DC6}.TMP
